{
	"name": "com.sprelf.threading.tests",
	"references": [
		"com.sprelf.threading",
		"com.sprelf.singleton"
	],
	"optionalUnityReferences": [
		"TestAssemblies"
	],
	"includePlatforms": [],
	"excludePlatforms": []
}
